…
# Create tsibble
aus_ts <- tsibbledata::aus_production %>%
  clean_names() %>%
  pivot_longer(-quarter, names_to = "product") %>%
  as_tsibble(index = quarter, key = product, value = value) %>%
  fill_gaps(value = 0)

aus_ts
#> # A tsibble: 1,308 x 3 [1Q]
#> # Key:       product [6]
#>    quarter product value
#>      <qtr> <chr>   <dbl>
#>  1 1956 Q1 beer      284
#>  2 1956 Q2 beer      213
#>  3 1956 Q3 beer      227
#>  4 1956 Q4 beer      308
#>  5 1957 Q1 beer      262
#>  6 1957 Q2 beer      228
#>  7 1957 Q3 beer      236
#>  8 1957 Q4 beer      320
#>  9 1958 Q1 beer      272
#> 10 1958 Q2 beer      233
#> # … with 1,298 more rows
```
…
``` r
# Create a mable-like tibble
aus_mbl <- aus_ts %>%
  ts_prep() %>%
  ts_model(forecast::ets) %>%
  ts_model(forecast::ets, with_log = TRUE, mode = "MAM") %>%
  ts_model(forecast::auto.arima, with_log = TRUE)

# Create a fable-like tibble
aus_fbl <- aus_mbl %>%
  ts_forecast(h = 4)

aus_fbl
#> # A tibble: 72 x 8
#>    product model       index point_forecast lo_80 hi_80 lo_95 hi_95
#>    <chr>   <chr>       <qtr>          <dbl> <dbl> <dbl> <dbl> <dbl>
#>  1 beer    arima_log 2010 Q3           408.  390.  427.  381.  437.
#>  2 beer    arima_log 2010 Q4           475.  454.  497.  443.  509.
#>  3 beer    arima_log 2011 Q1           413.  393.  433.  383.  444.
#>  4 beer    arima_log 2011 Q2           380.  361.  400.  352.  411.
#>  5 beer    ets       2010 Q3           405.  386.  423.  376.  433.
#>  6 beer    ets       2010 Q4           480.  458.  503.  445.  515.
#>  7 beer    ets       2011 Q1           417.  397.  438.  386.  448.
#>  8 beer    ets       2011 Q2           383.  364.  403.  353.  413.
#>  9 beer    ets_log   2010 Q3           407.  388.  426.  379.  437.
#> 10 beer    ets_log   2010 Q4           482.  459.  506.  447.  519.
#> # … with 62 more rows
```
…
